Who is the worst team to win a national title in college basketball since the NCAA introduced the 3-point line for the 1986-87 season? - Ethan Sertic's Github Site
…
The 1996-97 Arizona team had the worst point differential by far out of any of the national champions. At around 5.33, they’re over two points worse in point differential compared to the 2018-19 Virginia team that was at 7.5. The 2018-19 Virginia team had a much better record of 35 wins and 3 losses compared to the 1996-97 Arizona team who only had 25 wins and 9 losses. The Virginia team didn’t score as much Arizona, but played better defense. The only other team in the top 10 worst point differentials who didn’t get 30 wins in their national title season was 1987-88 Kansas. Their point differential was about 3.5 points better than the 1996-97 Arizona team. The 1996-97 Arizona team played just good enough in all its tournament games in order to survive and advance.

What about how each national champion shot behind the 3-point line after it was introduced for the 1986-87 season? Does this Arizona team shoot as bad from behind the arc as their point differential may indicate? Or is there another champion that still won games even though they weren’t a great 3-point shooting team? First, I’ll group the champions by their season like the point differentials, but I’ll summarize each team with their 3-point percentage and how many wins they had.

CBBChamps %>% 
  group_by(Season, Champion) %>% 
  summarise(`3P%`, Wins) %>% 
  arrange(`3P%`)

## `summarise()` has grouped output by 'Season'. You can override using the `.groups` argument.

## # A tibble: 33 x 4
## # Groups:   Season [33]
##    Season  Champion       `3P%`  Wins
##    <chr>   <chr>          <dbl> <dbl>
##  1 2010-11 Connecticut    0.329    32
##  2 2012-13 Louisville     0.333    35
##  3 1987-88 Kansas         0.335    27
##  4 1994-95 UCLA           0.341    31
##  5 1998-99 Connecticut    0.344    34
##  6 2002-03 Syracuse       0.344    30
##  7 2016-17 North Carolina 0.355    33
##  8 2015-16 Villanova      0.362    35
##  9 1997-98 Kentucky       0.367    35
## 10 1996-97 Arizona        0.37     25
## # … with 23 more rows
…
